Lab/Lab1/Part1/simulation/qsim/Part1.msim.vcd
$comment
	File created using the following command:
		vcd file Part1.msim.vcd -direction
$end
$date
	Tue Feb 27 18:29:52 2024
$end
$version
	ModelSim Version 10.1d
$end
$timescale
	1ps
$end
$scope module Part1_vlg_vec_tst $end
$var reg 9 ! SW [8:0] $end
$var wire 1 " LEDG [4] $end
$var wire 1 # LEDG [3] $end
$var wire 1 $ LEDG [2] $end
$var wire 1 % LEDG [1] $end
$var wire 1 & LEDG [0] $end
$var wire 1 ' LEDR [8] $end
$var wire 1 ( LEDR [7] $end
$var wire 1 ) LEDR [6] $end
$var wire 1 * LEDR [5] $end
$var wire 1 + LEDR [4] $end
$var wire 1 , LEDR [3] $end
$var wire 1 - LEDR [2] $end
$var wire 1 . LEDR [1] $end
$var wire 1 / LEDR [0] $end
$var wire 1 0 sampler $end
$scope module i1 $end
$var wire 1 1 gnd $end
$var wire 1 2 vcc $end
$var wire 1 3 unknown $end
$var tri1 1 4 devclrn $end
$var tri1 1 5 devpor $end
$var tri1 1 6 devoe $end
$var wire 1 7 FA0|s~0_combout $end
$var wire 1 8 FA0|co~0_combout $end
$var wire 1 9 FA1|s~combout $end
$var wire 1 : FA2|s~0_combout $end
$var wire 1 ; FA2|s~combout $end
$var wire 1 < FA2|co~1_combout $end
$var wire 1 = FA2|co~2_combout $end
$var wire 1 > FA2|co~0_combout $end
$var wire 1 ? FA3|s~combout $end
$var wire 1 @ FA3|co~0_combout $end
$var wire 1 A SW~combout [8] $end
$var wire 1 B SW~combout [7] $end
$var wire 1 C SW~combout [6] $end
$var wire 1 D SW~combout [5] $end
$var wire 1 E SW~combout [4] $end
$var wire 1 F SW~combout [3] $end
$var wire 1 G SW~combout [2] $end
$var wire 1 H SW~combout [1] $end
$var wire 1 I SW~combout [0] $end
$upscope $end
$upscope $end
$enddefinitions $end
#0
$dumpvars
b0 !
0&
0%
0$
0#
0"
0/
0.
0-
0,
0+
0*
0)
0(
0'
x0
01
12
x3
14
15
16
07
08
09
0:
0;
0<
0=
0>
0?
0@
0I
0H
0G
0F
0E
0D
0C
0B
0A
$end
#1000
b1 !
1I
00
17
1/
1&
#2000
b11 !
b10 !
0I
1H
10
07
19
0/
1.
0&
1%
#3000
b11 !
1I
00
17
1/
1&
#4000
b111 !
b101 !
b100 !
0I
0H
1G
10
07
09
1<
1:
0/
0.
1-
1;
0&
0%
1$
#5000
b101 !
1I
00
17
1/
1&
#6000
b111 !
b110 !
0I
1H
10
07
19
0/
1.
0&
1%
#7000
b111 !
1I
00
17
1/
1&
#8000
b1111 !
b1011 !
b1001 !
b1000 !
0I
0H
0G
1F
10
07
09
0<
0:
1?
0/
0.
0-
1,
0;
0&
0%
1#
0$
#9000
b1001 !
1I
00
17
1/
1&
#10000
b1011 !
b1010 !
0I
1H
10
07
19
0/
1.
0&
1%
#11000
b1011 !
1I
00
17
1/
1&
#12000
b1111 !
b1101 !
b1100 !
0I
0H
1G
10
07
09
1<
1:
0/
0.
1-
1;
0&
0%
1$
#13000
b1101 !
1I
00
17
1/
1&
#14000
b1111 !
b1110 !
0I
1H
10
07
19
0/
1.
0&
1%
#15000
b1111 !
1I
00
17
1/
1&
#16000
b11111 !
b10111 !
b10011 !
b10001 !
b10000 !
0I
0H
0G
0F
1E
10
09
0<
0:
0?
0/
0.
0-
0,
1+
0;
0%
0#
0$
#17000
b10001 !
1I
00
18
07
1/
19
0&
1%
#18000
b10011 !
b10010 !
0I
1H
10
08
17
1;
09
0/
1.
0;
19
1&
1$
0%
0$
1%
#19000
b10011 !
1I
00
18
07
1/
1;
09
0&
1$
0%
#20000
b10111 !
b10101 !
b10100 !
0I
0H
1G
10
08
17
0;
19
1<
1:
0/
0.
1-
1;
09
1&
0$
1%
1$
0%
#21000
b10101 !
1I
00
18
07
1/
19
0&
1%
#22000
b10111 !
b10110 !
0I
1H
10
08
17
1=
0;
09
0/
1.
0=
1;
19
1?
1&
0$
0%
0?
1$
1%
1#
0#
#23000
b10111 !
1I
00
18
07
1/
1=
0;
09
0&
1?
0$
0%
1#
#24000
b11111 !
b11011 !
b11001 !
b11000 !
0I
0H
0G
1F
10
08
17
0=
1;
19
0<
0:
1@
0?
0/
0.
0-
1,
0;
09
0@
1?
1&
1$
1%
1"
0#
0$
0%
0"
1#
#25000
b11001 !
1I
00
18
07
1/
19
0&
1%
#26000
b11011 !
b11010 !
0I
1H
10
08
17
1;
09
0/
1.
0;
19
1&
1$
0%
0$
1%
#27000
b11011 !
1I
00
18
07
1/
1;
09
0&
1$
0%
#28000
b11111 !
b11101 !
b11100 !
0I
0H
1G
10
08
17
0;
19
1<
1:
0/
0.
1-
1;
09
1&
0$
1%
1$
0%
#29000
b11101 !
1I
00
18
07
1/
19
0&
1%
#30000
b11111 !
b11110 !
0I
1H
10
08
17
1=
0;
09
0/
1.
0=
1;
19
1@
0?
1&
0$
0%
0@
1?
1$
1%
1"
0#
0"
1#
#31000
b11111 !
1I
00
18
07
1/
1=
0;
09
0&
1@
0?
0$
0%
1"
0#
#32000
b111111 !
b101111 !
b100111 !
b100011 !
b100001 !
b100000 !
0I
0H
0G
0F
0E
1D
10
08
0<
0:
0@
1?
0/
0.
0-
0,
0+
1*
0=
19
0"
1#
0?
1%
0#
#33000
b100001 !
1I
00
17
1/
1&
#34000
b100011 !
b100010 !
0I
1H
10
07
1;
09
0/
1.
0&
1$
0%
#35000
b100011 !
1I
00
17
1/
1&
#36000
b100111 !
b100101 !
b100100 !
0I
0H
1G
10
07
0;
19
1<
1:
0/
0.
1-
1;
0&
0$
1%
1$
#37000
b100101 !
1I
00
17
1/
1&
#38000
b100111 !
b100110 !
0I
1H
10
07
1=
0;
09
0/
1.
1?
0&
0$
0%
1#
#39000
b100111 !
1I
00
17
1/
1&
#40000
b101111 !
b101011 !
b101001 !
b101000 !
0I
0H
0G
1F
10
07
0=
1;
19
0<
0:
1@
0?
0/
0.
0-
1,
0@
1?
0;
0&
1$
1%
1"
0#
0"
1#
0$
#41000
b101001 !
1I
00
17
1/
1&
#42000
b101011 !
b101010 !
0I
1H
10
07
1;
09
0/
1.
0&
1$
0%
#43000
b101011 !
1I
00
17
1/
1&
#44000
b101111 !
b101101 !
b101100 !
0I
0H
1G
10
07
0;
19
1<
1:
0/
0.
1-
1;
0&
0$
1%
1$
#45000
b101101 !
1I
00
17
1/
1&
#46000
b101111 !
b101110 !
0I
1H
10
07
1=
0;
09
0/
1.
1@
0?
0&
0$
0%
1"
0#
#47000
b101111 !
1I
00
17
1/
1&
#48000
b111111 !
b110111 !
b110011 !
b110001 !
b110000 !
0I
0H
0G
0F
1E
10
0=
1;
19
0<
0:
0@
1?
0/
0.
0-
0,
1+
0?
0;
1$
1%
0"
1#
0#
0$
#49000
b110001 !
1I
00
18
07
1/
1;
09
0&
1$
0%
#50000
b110011 !
b110010 !
0I
1H
10
08
17
19
0/
1.
09
1&
1%
0%
#51000
b110011 !
1I
00
18
07
1/
19
0&
1%
#52000
b110111 !
b110101 !
b110100 !
0I
0H
1G
10
08
17
09
1<
1:
0/
0.
1-
19
1&
0%
1%
#53000
b110101 !
1I
00
18
07
1/
1=
0;
09
0&
1?
0$
0%
1#
#54000
b110111 !
b110110 !
0I
1H
10
08
17
19
0/
1.
09
1&
1%
0%
#55000
b110111 !
1I
00
18
07
1/
19
0&
1%
#56000
b111111 !
b111011 !
b111001 !
b111000 !
0I
0H
0G
1F
10
08
17
09
0<
0:
1@
0?
0/
0.
0-
1,
0=
19
1&
0%
1"
0#
0@
1?
1%
0"
1#
#57000
b111001 !
1I
00
18
07
1/
1;
09
0&
1$
0%
#58000
b111011 !
b111010 !
0I
1H
10
08
17
19
0/
1.
09
1&
1%
0%
#59000
b111011 !
1I
00
18
07
1/
19
0&
1%
#60000
b111111 !
b111101 !
b111100 !
0I
0H
1G
10
08
17
09
1<
1:
0/
0.
1-
19
1&
0%
1%
#61000
b111101 !
1I
00
18
07
1/
1=
0;
09
0&
1@
0?
0$
0%
1"
0#
#62000
b111111 !
b111110 !
0I
1H
10
08
17
19
0/
1.
09
1&
1%
0%
#63000
b111111 !
1I
00
18
07
1/
19
0&
1%
#64000
b1111111 !
b1011111 !
b1001111 !
b1000111 !
b1000011 !
b1000001 !
b1000000 !
0I
0H
0G
0F
0E
0D
1C
10
08
0=
1;
0@
1?
0/
0.
0-
0,
0+
0*
1)
09
0?
1$
0"
1#
0%
0#
#65000
b1000001 !
1I
00
17
1/
1&
#66000
b1000011 !
b1000010 !
0I
1H
10
07
19
0/
1.
0&
1%
#67000
b1000011 !
1I
00
17
1/
1&
#68000
b1000111 !
b1000101 !
b1000100 !
0I
0H
1G
10
07
09
1>
0:
0/
0.
1-
1?
0;
0&
0%
1#
0$
#69000
b1000101 !
1I
00
17
1/
1&
#70000
b1000111 !
b1000110 !
0I
1H
10
07
19
0/
1.
0&
1%
#71000
b1000111 !
1I
00
17
1/
1&
#72000
b1001111 !
b1001011 !
b1001001 !
b1001000 !
0I
0H
0G
1F
10
07
09
0>
1:
1@
0?
0/
0.
0-
1,
0@
1?
1;
0&
0%
1"
0#
0"
1#
1$
#73000
b1001001 !
1I
00
17
1/
1&
#74000
b1001011 !
b1001010 !
0I
1H
10
07
19
0/
1.
0&
1%
#75000
b1001011 !
1I
00
17
1/
1&
#76000
b1001111 !
b1001101 !
b1001100 !
0I
0H
1G
10
07
09
1>
0:
0/
0.
1-
1@
0?
0;
0&
0%
1"
0#
0$
#77000
b1001101 !
1I
00
17
1/
1&
#78000
b1001111 !
b1001110 !
0I
1H
10
07
19
0/
1.
0&
1%
#79000
b1001111 !
1I
00
17
1/
1&
#80000
b1011111 !
b1010111 !
b1010011 !
b1010001 !
b1010000 !
0I
0H
0G
0F
1E
10
09
0>
1:
0@
1?
0/
0.
0-
0,
1+
0?
1;
0%
0"
1#
0#
1$
#81000
b1010001 !
1I
00
18
07
1/
19
0&
1%
#82000
b1010011 !
b1010010 !
0I
1H
10
08
17
1=
0;
09
0/
1.
0=
1;
19
1?
1&
0$
0%
0?
1$
1%
1#
0#
#83000
b1010011 !
1I
00
18
07
1/
1=
0;
09
0&
1?
0$
0%
1#
#84000
b1010111 !
b1010101 !
b1010100 !
0I
0H
1G
10
08
17
0=
1;
19
1>
0:
0/
0.
1-
0;
09
1&
1$
1%
0$
0%
#85000
b1010101 !
1I
00
18
07
1/
19
0&
1%
#86000
b1010111 !
b1010110 !
0I
1H
10
08
17
1=
1;
09
0/
1.
0=
0;
19
1&
1$
0%
0$
1%
#87000
b1010111 !
1I
00
18
07
1/
1=
1;
09
0&
1$
0%
#88000
b1011111 !
b1011011 !
b1011001 !
b1011000 !
0I
0H
0G
1F
10
08
17
0=
0;
19
0>
1:
1@
0?
0/
0.
0-
1,
1;
09
0@
1?
1&
0$
1%
1"
0#
1$
0%
0"
1#
#89000
b1011001 !
1I
00
18
07
1/
19
0&
1%
#90000
b1011011 !
b1011010 !
0I
1H
10
08
17
1=
0;
09
0/
1.
0=
1;
19
1@
0?
1&
0$
0%
0@
1?
1$
1%
1"
0#
0"
1#
#91000
b1011011 !
1I
00
18
07
1/
1=
0;
09
0&
1@
0?
0$
0%
1"
0#
#92000
b1011111 !
b1011101 !
b1011100 !
0I
0H
1G
10
08
17
0=
1;
19
1>
0:
0/
0.
1-
0;
09
1&
1$
1%
0$
0%
#93000
b1011101 !
1I
00
18
07
1/
19
0&
1%
#94000
b1011111 !
b1011110 !
0I
1H
10
08
17
1=
1;
09
0/
1.
0=
0;
19
1&
1$
0%
0$
1%
#95000
b1011111 !
1I
00
18
07
1/
1=
1;
09
0&
1$
0%
#96000
b1111111 !
b1101111 !
b1100111 !
b1100011 !
b1100001 !
b1100000 !
0I
0H
0G
0F
0E
1D
10
08
0>
1:
0@
1?
0/
0.
0-
0,
0+
1*
0=
19
0"
1#
0?
1%
0#
#97000
b1100001 !
1I
00
17
1/
1&
#98000
b1100011 !
b1100010 !
0I
1H
10
07
1=
0;
09
0/
1.
1?
0&
0$
0%
1#
#99000
b1100011 !
1I
00
17
1/
1&
#100000
b1100111 !
b1100101 !
b1100100 !
0I
0H
1G
10
07
0=
1;
19
1>
0:
0/
0.
1-
0;
0&
1$
1%
0$
#101000
b1100101 !
1I
00
17
1/
1&
#102000
b1100111 !
b1100110 !
0I
1H
10
07
1=
1;
09
0/
1.
0&
1$
0%
#103000
b1100111 !
1I
00
17
1/
1&
#104000
b1101111 !
b1101011 !
b1101001 !
b1101000 !
0I
0H
0G
1F
10
07
0=
0;
19
0>
1:
1@
0?
0/
0.
0-
1,
0@
1?
1;
0&
0$
1%
1"
0#
0"
1#
1$
#105000
b1101001 !
1I
00
17
1/
1&
#106000
b1101011 !
b1101010 !
0I
1H
10
07
1=
0;
09
0/
1.
1@
0?
0&
0$
0%
1"
0#
#107000
b1101011 !
1I
00
17
1/
1&
#108000
b1101111 !
b1101101 !
b1101100 !
0I
0H
1G
10
07
0=
1;
19
1>
0:
0/
0.
1-
0;
0&
1$
1%
0$
#109000
b1101101 !
1I
00
17
1/
1&
#110000
b1101111 !
b1101110 !
0I
1H
10
07
1=
1;
09
0/
1.
0&
1$
0%
#111000
b1101111 !
1I
00
17
1/
1&
#112000
b1111111 !
b1110111 !
b1110011 !
b1110001 !
b1110000 !
0I
0H
0G
0F
1E
10
0=
0;
19
0>
1:
0@
1?
0/
0.
0-
0,
1+
0?
1;
0$
1%
0"
1#
0#
1$
#113000
b1110001 !
1I
00
18
07
1/
1=
0;
09
0&
1?
0$
0%
1#
#114000
b1110011 !
b1110010 !
0I
1H
10
08
17
19
0/
1.
09
1&
1%
0%
#115000
b1110011 !
1I
00
18
07
1/
19
0&
1%
#116000
b1110111 !
b1110101 !
b1110100 !
0I
0H
1G
10
08
17
09
1>
0:
0/
0.
1-
0=
19
1&
0%
1%
#117000
b1110101 !
1I
00
18
07
1/
1=
1;
09
0&
1$
0%
#118000
b1110111 !
b1110110 !
0I
1H
10
08
17
19
0/
1.
09
1&
1%
0%
#119000
b1110111 !
1I
00
18
07
1/
19
0&
1%
#120000
b1111111 !
b1111011 !
b1111001 !
b1111000 !
0I
0H
0G
1F
10
08
17
09
0>
1:
1@
0?
0/
0.
0-
1,
0=
19
1&
0%
1"
0#
0@
1?
1%
0"
1#
#121000
b1111001 !
1I
00
18
07
1/
1=
0;
09
0&
1@
0?
0$
0%
1"
0#
#122000
b1111011 !
b1111010 !
0I
1H
10
08
17
19
0/
1.
09
1&
1%
0%
#123000
b1111011 !
1I
00
18
07
1/
19
0&
1%
#124000
b1111111 !
b1111101 !
b1111100 !
0I
0H
1G
10
08
17
09
1>
0:
0/
0.
1-
0=
19
1&
0%
1%
#125000
b1111101 !
1I
00
18
07
1/
1=
1;
09
0&
1$
0%
#126000
b1111111 !
b1111110 !
0I
1H
10
08
17
19
0/
1.
09
1&
1%
0%
#127000
b1111111 !
1I
00
18
07
1/
19
0&
1%
#128000
b11111111 !
b10111111 !
b10011111 !
b10001111 !
b10000111 !
b10000011 !
b10000001 !
b10000000 !
0I
0H
0G
0F
0E
0D
0C
1B
10
08
0=
0;
0>
0<
0/
0.
0-
0,
0+
0*
0)
1(
09
0@
1?
0$
0%
0"
1#
#129000
b10000001 !
1I
00
17
1/
1&
#130000
b10000011 !
b10000010 !
0I
1H
10
07
19
0/
1.
0&
1%
#131000
b10000011 !
1I
00
17
1/
1&
#132000
b10000111 !
b10000101 !
b10000100 !
0I
0H
1G
10
07
09
1<
1:
0/
0.
1-
1;
0&
0%
1$
#133000
b10000101 !
1I
00
17
1/
1&
#134000
b10000111 !
b10000110 !
0I
1H
10
07
19
0/
1.
0&
1%
#135000
b10000111 !
1I
00
17
1/
1&
#136000
b10001111 !
b10001011 !
b10001001 !
b10001000 !
0I
0H
0G
1F
10
07
09
0<
0:
1@
0?
0/
0.
0-
1,
0;
0&
0%
1"
0#
0$
#137000
b10001001 !
1I
00
17
1/
1&
#138000
b10001011 !
b10001010 !
0I
1H
10
07
19
0/
1.
0&
1%
#139000
b10001011 !
1I
00
17
1/
1&
#140000
b10001111 !
b10001101 !
b10001100 !
0I
0H
1G
10
07
09
1<
1:
0/
0.
1-
1;
0&
0%
1$
#141000
b10001101 !
1I
00
17
1/
1&
#142000
b10001111 !
b10001110 !
0I
1H
10
07
19
0/
1.
0&
1%
#143000
b10001111 !
1I
00
17
1/
1&
#144000
b10011111 !
b10010111 !
b10010011 !
b10010001 !
b10010000 !
0I
0H
0G
0F
1E
10
09
0<
0:
0@
1?
0/
0.
0-
0,
1+
0;
0%
0"
1#
0$
#145000
b10010001 !
1I
00
18
07
1/
19
0&
1%
#146000
b10010011 !
b10010010 !
0I
1H
10
08
17
1;
09
0/
1.
0;
19
1&
1$
0%
0$
1%
#147000
b10010011 !
1I
00
18
07
1/
1;
09
0&
1$
0%
#148000
b10010111 !
b10010101 !
b10010100 !
0I
0H
1G
10
08
17
0;
19
1<
1:
0/
0.
1-
1;
09
1&
0$
1%
1$
0%
#149000
b10010101 !
1I
00
18
07
1/
19
0&
1%
#150000
b10010111 !
b10010110 !
0I
1H
10
08
17
1=
0;
09
0/
1.
0=
1;
19
1@
0?
1&
0$
0%
0@
1?
1$
1%
1"
0#
0"
1#
#151000
b10010111 !
1I
00
18
07
1/
1=
0;
09
0&
1@
0?
0$
0%
1"
0#
#152000
b10011111 !
b10011011 !
b10011001 !
b10011000 !
0I
0H
0G
1F
10
08
17
0=
1;
19
0<
0:
1?
0/
0.
0-
1,
0;
09
0?
1&
1$
1%
1#
0$
0%
0#
#153000
b10011001 !
1I
00
18
07
1/
19
0&
1%
#154000
b10011011 !
b10011010 !
0I
1H
10
08
17
1;
09
0/
1.
0;
19
1&
1$
0%
0$
1%
#155000
b10011011 !
1I
00
18
07
1/
1;
09
0&
1$
0%
#156000
b10011111 !
b10011101 !
b10011100 !
0I
0H
1G
10
08
17
0;
19
1<
1:
0/
0.
1-
1;
09
1&
0$
1%
1$
0%
#157000
b10011101 !
1I
00
18
07
1/
19
0&
1%
#158000
b10011111 !
b10011110 !
0I
1H
10
08
17
1=
0;
09
0/
1.
0=
1;
19
1?
1&
0$
0%
0?
1$
1%
1#
0#
#159000
b10011111 !
1I
00
18
07
1/
1=
0;
09
0&
1?
0$
0%
1#
#160000
b10111111 !
b10101111 !
b10100111 !
b10100011 !
b10100001 !
b10100000 !
0I
0H
0G
0F
0E
1D
10
08
0<
0:
0?
0/
0.
0-
0,
0+
1*
0=
19
0#
0@
1?
1%
0"
1#
#161000
b10100001 !
1I
00
17
1/
1&
#162000
b10100011 !
b10100010 !
0I
1H
10
07
1;
09
0/
1.
0&
1$
0%
#163000
b10100011 !
1I
00
17
1/
1&
#164000
b10100111 !
b10100101 !
b10100100 !
0I
0H
1G
10
07
0;
19
1<
1:
0/
0.
1-
1;
0&
0$
1%
1$
#165000
b10100101 !
1I
00
17
1/
1&
#166000
b10100111 !
b10100110 !
0I
1H
10
07
1=
0;
09
0/
1.
1@
0?
0&
0$
0%
1"
0#
#167000
b10100111 !
1I
00
17
1/
1&
#168000
b10101111 !
b10101011 !
b10101001 !
b10101000 !
0I
0H
0G
1F
10
07
0=
1;
19
0<
0:
1?
0/
0.
0-
1,
0?
0;
0&
1$
1%
1#
0#
0$
#169000
b10101001 !
1I
00
17
1/
1&
#170000
b10101011 !
b10101010 !
0I
1H
10
07
1;
09
0/
1.
0&
1$
0%
#171000
b10101011 !
1I
00
17
1/
1&
#172000
b10101111 !
b10101101 !
b10101100 !
0I
0H
1G
10
07
0;
19
1<
1:
0/
0.
1-
1;
0&
0$
1%
1$
#173000
b10101101 !
1I
00
17
1/
1&
#174000
b10101111 !
b10101110 !
0I
1H
10
07
1=
0;
09
0/
1.
1?
0&
0$
0%
1#
#175000
b10101111 !
1I
00
17
1/
1&
#176000
b10111111 !
b10110111 !
b10110011 !
b10110001 !
b10110000 !
0I
0H
0G
0F
1E
10
0=
1;
19
0<
0:
0?
0/
0.
0-
0,
1+
0@
1?
0;
1$
1%
0#
0"
1#
0$
#177000
b10110001 !
1I
00
18
07
1/
1;
09
0&
1$
0%
#178000
b10110011 !
b10110010 !
0I
1H
10
08
17
19
0/
1.
09
1&
1%
0%
#179000
b10110011 !
1I
00
18
07
1/
19
0&
1%
#180000
b10110111 !
b10110101 !
b10110100 !
0I
0H
1G
10
08
17
09
1<
1:
0/
0.
1-
19
1&
0%
1%
#181000
b10110101 !
1I
00
18
07
1/
1=
0;
09
0&
1@
0?
0$
0%
1"
0#
#182000
b10110111 !
b10110110 !
0I
1H
10
08
17
19
0/
1.
09
1&
1%
0%
#183000
b10110111 !
1I
00
18
07
1/
19
0&
1%
#184000
b10111111 !
b10111011 !
b10111001 !
b10111000 !
0I
0H
0G
1F
10
08
17
09
0<
0:
1?
0/
0.
0-
1,
0=
19
1&
0%
1#
0?
1%
0#
#185000
b10111001 !
1I
00
18
07
1/
1;
09
0&
1$
0%
#186000
b10111011 !
b10111010 !
0I
1H
10
08
17
19
0/
1.
09
1&
1%
0%
#187000
b10111011 !
1I
00
18
07
1/
19
0&
1%
#188000
b10111111 !
b10111101 !
b10111100 !
0I
0H
1G
10
08
17
09
1<
1:
0/
0.
1-
19
1&
0%
1%
#189000
b10111101 !
1I
00
18
07
1/
1=
0;
09
0&
1?
0$
0%
1#
#190000
b10111111 !
b10111110 !
0I
1H
10
08
17
19
0/
1.
09
1&
1%
0%
#191000
b10111111 !
1I
00
18
07
1/
19
0&
1%
#192000
b11111111 !
b11011111 !
b11001111 !
b11000111 !
b11000011 !
b11000001 !
b11000000 !
0I
0H
0G
0F
0E
0D
1C
10
08
0=
1;
0?
0/
0.
0-
0,
0+
0*
1)
09
0@
1?
1$
0#
0%
0"
1#
#193000
b11000001 !
1I
00
17
1/
1&
#194000
b11000011 !
b11000010 !
0I
1H
10
07
19
0/
1.
0&
1%
#195000
b11000011 !
1I
00
17
1/
1&
#196000
b11000111 !
b11000101 !
b11000100 !
0I
0H
1G
10
07
09
1>
0:
0/
0.
1-
1@
0?
0;
0&
0%
1"
0#
0$
#197000
b11000101 !
1I
00
17
1/
1&
#198000
b11000111 !
b11000110 !
0I
1H
10
07
19
0/
1.
0&
1%
#199000
b11000111 !
1I
00
17
1/
1&
#200000
b11001111 !
b11001011 !
b11001001 !
b11001000 !
0I
0H
0G
1F
10
07
09
0>
1:
1?
0/
0.
0-
1,
0?
1;
0&
0%
1#
0#
1$
#201000
b11001001 !
1I
00
17
1/
1&
#202000
b11001011 !
b11001010 !
0I
1H
10
07
19
0/
1.
0&
1%
#203000
b11001011 !
1I
00
17
1/
1&
#204000
b11001111 !
b11001101 !
b11001100 !
0I
0H
1G
10
07
09
1>
0:
0/
0.
1-
1?
0;
0&
0%
1#
0$
#205000
b11001101 !
1I
00
17
1/
1&
#206000
b11001111 !
b11001110 !
0I
1H
10
07
19
0/
1.
0&
1%
#207000
b11001111 !
1I
00
17
1/
1&
#208000
b11011111 !
b11010111 !
b11010011 !
b11010001 !
b11010000 !
0I
0H
0G
0F
1E
10
09
0>
1:
0?
0/
0.
0-
0,
1+
0@
1?
1;
0%
0#
0"
1#
1$
#209000
b11010001 !
1I
00
18
07
1/
19
0&
1%
#210000
b11010011 !
b11010010 !
0I
1H
10
08
17
1=
0;
09
0/
1.
0=
1;
19
1@
0?
1&
0$
0%
0@
1?
1$
1%
1"
0#
0"
1#
#211000
b11010011 !
1I
00
18
07
1/
1=
0;
09
0&
1@
0?
0$
0%
1"
0#
#212000
b11010111 !
b11010101 !
b11010100 !
0I
0H
1G
10
08
17
0=
1;
19
1>
0:
0/
0.
1-
0;
09
1&
1$
1%
0$
0%
#213000
b11010101 !
1I
00
18
07
1/
19
0&
1%
#214000
b11010111 !
b11010110 !
0I
1H
10
08
17
1=
1;
09
0/
1.
0=
0;
19
1&
1$
0%
0$
1%
#215000
b11010111 !
1I
00
18
07
1/
1=
1;
09
0&
1$
0%
#216000
b11011111 !
b11011011 !
b11011001 !
b11011000 !
0I
0H
0G
1F
10
08
17
0=
0;
19
0>
1:
1?
0/
0.
0-
1,
1;
09
0?
1&
0$
1%
1#
1$
0%
0#
#217000
b11011001 !
1I
00
18
07
1/
19
0&
1%
#218000
b11011011 !
b11011010 !
0I
1H
10
08
17
1=
0;
09
0/
1.
0=
1;
19
1?
1&
0$
0%
0?
1$
1%
1#
0#
#219000
b11011011 !
1I
00
18
07
1/
1=
0;
09
0&
1?
0$
0%
1#
#220000
b11011111 !
b11011101 !
b11011100 !
0I
0H
1G
10
08
17
0=
1;
19
1>
0:
0/
0.
1-
0;
09
1&
1$
1%
0$
0%
#221000
b11011101 !
1I
00
18
07
1/
19
0&
1%
#222000
b11011111 !
b11011110 !
0I
1H
10
08
17
1=
1;
09
0/
1.
0=
0;
19
1&
1$
0%
0$
1%
#223000
b11011111 !
1I
00
18
07
1/
1=
1;
09
0&
1$
0%
#224000
b11111111 !
b11101111 !
b11100111 !
b11100011 !
b11100001 !
b11100000 !
0I
0H
0G
0F
0E
1D
10
08
0>
1:
0?
0/
0.
0-
0,
0+
1*
0=
19
0#
0@
1?
1%
0"
1#
#225000
b11100001 !
1I
00
17
1/
1&
#226000
b11100011 !
b11100010 !
0I
1H
10
07
1=
0;
09
0/
1.
1@
0?
0&
0$
0%
1"
0#
#227000
b11100011 !
1I
00
17
1/
1&
#228000
b11100111 !
b11100101 !
b11100100 !
0I
0H
1G
10
07
0=
1;
19
1>
0:
0/
0.
1-
0;
0&
1$
1%
0$
#229000
b11100101 !
1I
00
17
1/
1&
#230000
b11100111 !
b11100110 !
0I
1H
10
07
1=
1;
09
0/
1.
0&
1$
0%
#231000
b11100111 !
1I
00
17
1/
1&
#232000
b11101111 !
b11101011 !
b11101001 !
b11101000 !
0I
0H
0G
1F
10
07
0=
0;
19
0>
1:
1?
0/
0.
0-
1,
0?
1;
0&
0$
1%
1#
0#
1$
#233000
b11101001 !
1I
00
17
1/
1&
#234000
b11101011 !
b11101010 !
0I
1H
10
07
1=
0;
09
0/
1.
1?
0&
0$
0%
1#
#235000
b11101011 !
1I
00
17
1/
1&
#236000
b11101111 !
b11101101 !
b11101100 !
0I
0H
1G
10
07
0=
1;
19
1>
0:
0/
0.
1-
0;
0&
1$
1%
0$
#237000
b11101101 !
1I
00
17
1/
1&
#238000
b11101111 !
b11101110 !
0I
1H
10
07
1=
1;
09
0/
1.
0&
1$
0%
#239000
b11101111 !
1I
00
17
1/
1&
#240000
b11111111 !
b11110111 !
b11110011 !
b11110001 !
b11110000 !
0I
0H
0G
0F
1E
10
0=
0;
19
0>
1:
0?
0/
0.
0-
0,
1+
0@
1?
1;
0$
1%
0#
0"
1#
1$
#241000
b11110001 !
1I
00
18
07
1/
1=
0;
09
0&
1@
0?
0$
0%
1"
0#
#242000
b11110011 !
b11110010 !
0I
1H
10
08
17
19
0/
1.
09
1&
1%
0%
#243000
b11110011 !
1I
00
18
07
1/
19
0&
1%
#244000
b11110111 !
b11110101 !
b11110100 !
0I
0H
1G
10
08
17
09
1>
0:
0/
0.
1-
0=
19
1&
0%
1%
#245000
b11110101 !
1I
00
18
07
1/
1=
1;
09
0&
1$
0%
#246000
b11110111 !
b11110110 !
0I
1H
10
08
17
19
0/
1.
09
1&
1%
0%
#247000
b11110111 !
1I
00
18
07
1/
19
0&
1%
#248000
b11111111 !
b11111011 !
b11111001 !
b11111000 !
0I
0H
0G
1F
10
08
17
09
0>
1:
1?
0/
0.
0-
1,
0=
19
1&
0%
1#
0?
1%
0#
#249000
b11111001 !
1I
00
18
07
1/
1=
0;
09
0&
1?
0$
0%
1#
#250000
b11111011 !
b11111010 !
0I
1H
10
08
17
19
0/
1.
09
1&
1%
0%
#251000
b11111011 !
1I
00
18
07
1/
19
0&
1%
#252000
b11111111 !
b11111101 !
b11111100 !
0I
0H
1G
10
08
17
09
1>
0:
0/
0.
1-
0=
19
1&
0%
1%
#253000
b11111101 !
1I
00
18
07
1/
1=
1;
09
0&
1$
0%
#254000
b11111111 !
b11111110 !
0I
1H
10
08
17
19
0/
1.
09
1&
1%
0%
#255000
b11111111 !
1I
00
18
07
1/
19
0&
1%
#256000
b111111111 !
b101111111 !
b100111111 !
b100011111 !
b100001111 !
b100000111 !
b100000011 !
b100000001 !
b100000000 !
0I
0H
0G
0F
0E
0D
0C
0B
1A
10
08
17
0=
0;
0>
0<
0@
0/
0.
0-
0,
0+
0*
0)
0(
1'
09
0?
1&
0$
0"
0%
0#
#257000
b100000001 !
1I
00
18
07
1/
19
0&
1%
#258000
b100000011 !
b100000010 !
0I
1H
10
08
17
1;
09
0/
1.
0;
19
1&
1$
0%
0$
1%
#259000
b100000011 !
1I
00
18
07
1/
1;
09
0&
1$
0%
#260000
b100000111 !
b100000101 !
b100000100 !
0I
0H
1G
10
08
17
0;
19
1<
1:
0/
0.
1-
1;
09
1&
0$
1%
1$
0%
#261000
b100000101 !
1I
00
18
07
1/
19
0&
1%
#262000
b100000111 !
b100000110 !
0I
1H
10
08
17
1=
0;
09
0/
1.
0=
1;
19
1?
1&
0$
0%
0?
1$
1%
1#
0#
#263000
b100000111 !
1I
00
18
07
1/
1=
0;
09
0&
1?
0$
0%
1#
#264000
b100001111 !
b100001011 !
b100001001 !
b100001000 !
0I
0H
0G
1F
10
08
17
0=
1;
19
0<
0:
1@
0?
0/
0.
0-
1,
0;
09
0@
1?
1&
1$
1%
1"
0#
0$
0%
0"
1#
#265000
b100001001 !
1I
00
18
07
1/
19
0&
1%
#266000
b100001011 !
b100001010 !
0I
1H
10
08
17
1;
09
0/
1.
0;
19
1&
1$
0%
0$
1%
#267000
b100001011 !
1I
00
18
07
1/
1;
09
0&
1$
0%
